PRIMEIRO EXPERIMENTO/ALL0001/F0001CH1.CSV

Record Length,2.500000e+03,,   0.000000000000,  -0.24800,
Sample Interval,2.000000e-01,,   0.200000000000,  -0.24800,
Trigger Point,-0.000000000000e+00,,   0.400000000000,  -0.24800,
,,,   0.600000000000,  -0.24800,
,,,   0.800000000000,  -0.24800,
,,,   1.000000000000,  -0.24800,
Source,CH1,,   1.200000000000,  -0.24800,
Vertical Units,V,,   1.400000000000,  -0.24800,
Vertical Scale,2.000000e-01,,   1.600000000000,  -0.24800,
Vertical Offset,-7.760000e-01,,   1.800000000000,  -0.24800,
Horizontal Units,s,,   2.000000000000,  -0.24800,
Horizontal Scale,5.000000e+01,,   2.200000000000,  -0.24800,
Pt Fmt,Y,,   2.400000000000,  -0.24800,
Yzero,0.000000e+00,,   2.600000000000,  -0.24800,
Probe Atten,1.000000e+01,,   2.800000000000,  -0.24800,
Model Number,TBS1052B,,   3.000000000000,  -0.24800,
Serial Number,C014253,,   3.200000000000,  -0.24800,
Firmware Version,FV:v2.52,,   3.400000000000,  -0.24800,
,,,3.600000000000,  -0.24800,
,,,3.800000000000,  -0.24800,
,,,4.000000000000,  -0.24800,
,,,4.200000000000,  -0.24800,
,,,4.400000000000,  -0.24800,
,,,4.600000000000,  -0.24800,
,,,4.800000000000,  -0.24800,
,,,5.000000000000,  -0.24800,
,,,5.200000000000,  -0.24800,
,,,5.400000000000,  -0.24800,
,,,5.600000000000,  -0.24800,
,,,5.800000000000,  -0.24800,
,,,6.000000000000,  -0.24800,
,,,6.200000000000,  -0.24800,
,,,6.400000000000,  -0.24800,
,,,6.600000000000,  -0.24800,
,,,6.800000000000,  -0.24800,
,,,7.000000000000,  -0.24800,
,,,7.200000000000,  -0.24800,
,,,7.400000000000,  -0.24800,
,,,7.600000000000,  -0.24800,
,,,7.800000000000,  -0.24800,
,,,8.000000000000,  -0.24800,
,,,8.200000000000,  -0.24800,
,,,8.400000000000,  -0.24800,
,,,8.600000000000,  -0.24800,
,,,8.800000000000,  -0.24800,
,,,9.000000000000,  -0.24800,
,,,9.200000000000,  -0.24800,
,,,9.400000000000,  -0.24800,
,,,9.600000000000,  -0.24800,
,,,9.800000000000,  -0.24800,
,,,10.000000000000,  -0.24800,
,,,10.200000000000,  -0.24800,
,,,10.400000000000,  -0.24800,
,,,10.600000000000,  -0.24800,
,,,10.800000000000,  -0.24800,
,,,11.000000000000,  -0.24800,
,,,11.200000000000,  -0.24800,
,,,11.400000000000,  -0.24800,
,,,11.600000000000,  -0.24800,
,,,11.800000000000,  -0.24800,
,,,12.000000000000,  -0.24800,
,,,12.200000000000,  -0.24800,
,,,12.400000000000,  -0.24800,
,,,12.600000000000,  -0.24800,
,,,12.800000000000,  -0.24800,
,,,13.000000000000,  -0.24800,
,,,13.200000000000,  -0.24800,
,,,13.400000000000,  -0.24800,
,,,13.600000000000,  -0.24800,
,,,13.800000000000,  -0.24800,
,,,14.000000000000,  -0.24800,
,,,14.200000000000,  -0.24800,
,,,14.400000000000,  -0.24800,
,,,14.600000000000,  -0.24800,
,,,14.800000000000,  -0.24800,
,,,15.000000000000,  -0.24800,
,,,15.200000000000,  -0.24800,
,,,15.400000000000,  -0.24800,
,,,15.600000000000,  -0.24800,
,,,15.800000000000,  -0.24800,
,,,16.000000000000,  -0.24800,
,,,16.200000000000,  -0.24800,
,,,16.400000000000,  -0.24800,
,,,16.600000000000,  -0.24800,
,,,16.800000000000,  -0.24800,
,,,17.000000000000,  -0.24800,
,,,17.200000000000,  -0.24800,
,,,17.400000000000,  -0.24800,
,,,17.600000000000,  -0.24800,
,,,17.800000000000,  -0.24800,
,,,18.000000000000,  -0.24800,
,,,18.200000000000,  -0.24800,
,,,18.400000000000,  -0.24800,
,,,18.600000000000,  -0.24800,
,,,18.800000000000,  -0.24800,
,,,19.000000000000,  -0.24800,
,,,19.200000000000,  -0.24800,
,,,19.400000000000,  -0.24800,
,,,19.600000000000,  -0.24800,
,,,19.800000000000,  -0.24800,
,,,20.000000000000,  -0.24800,
,,,20.200000000000,  -0.24800,
,,,20.400000000000,  -0.24800,
,,,20.600000000000,  -0.24800,
,,,20.800000000000,  -0.24800,
,,,21.000000000000,  -0.24800,
,,,21.200000000000,  -0.24800,
,,,21.400000000000,  -0.24800,
,,,21.600000000000,  -0.24800,
,,,21.800000000000,  -0.24800,
,,,22.000000000000,  -0.24800,
,,,22.200000000000,  -0.24800,
,,,22.400000000000,  -0.24800,
,,,22.600000000000,  -0.24800,
,,,22.800000000000,  -0.24800,
,,,23.000000000000,  -0.24800,
,,,23.200000000000,  -0.24800,
,,,23.400000000000,  -0.24800,
,,,23.600000000000,  -0.24800,
,,,23.800000000000,  -0.24800,
,,,24.000000000000,  -0.24800,
,,,24.200000000000,  -0.24800,
,,,24.400000000000,  -0.24800,
,,,24.600000000000,  -0.24800,
,,,24.800000000000,  -0.24800,
,,,25.000000000000,  -0.24800,
,,,25.200000000000,  -0.24800,
,,,25.400000000000,  -0.24800,
,,,25.600000000000,  -0.24800,
,,,25.800000000000,  -0.24800,
,,,26.000000000000,  -0.24800,
,,,26.200000000000,  -0.24800,
,,,26.400000000000,  -0.24800,
,,,26.600000000000,  -0.24800,
,,,26.800000000000,  -0.24800,
,,,27.000000000000,  -0.24800,
,,,27.200000000000,  -0.24800,
,,,27.400000000000,  -0.24800,
,,,27.600000000000,  -0.24800,
,,,27.800000000000,  -0.24800,
,,,28.000000000000,  -0.24800,
,,,28.200000000000,  -0.24800,
,,,28.400000000000,  -0.24800,
,,,28.600000000000,  -0.24800,
,,,28.800000000000,  -0.24800,
,,,29.000000000000,  -0.24800,
,,,29.200000000000,  -0.24800,
,,,29.400000000000,  -0.24800,
,,,29.600000000000,  -0.24800,
,,,29.800000000000,  -0.24800,
,,,30.000000000000,  -0.24800,
,,,30.200000000000,  -0.24800,
,,,30.400000000000,  -0.24800,
,,,30.600000000000,  -0.24800,
,,,30.800000000000,  -0.24800,
,,,31.000000000000,  -0.24800,
,,,31.200000000000,  -0.24800,
,,,31.400000000000,  -0.24800,
,,,31.600000000000,  -0.24800,
,,,31.800000000000,  -0.24800,
,,,32.000000000000,  -0.24800,
,,,32.200000000000,   0.10400,
,,,32.400000000000,   0.10400,
,,,32.600000000000,   0.09600,
,,,32.800000000000,   0.10400,
,,,33.000000000000,   0.09600,
,,,33.200000000000,   0.09600,
,,,33.400000000000,   0.10400,
,,,33.600000000000,   0.09600,
,,,33.800000000000,   0.09600,
,,,34.000000000000,   0.09600,
,,,34.200000000000,   0.09600,
,,,34.400000000000,   0.09600,
,,,34.600000000000,   0.09600,
,,,34.800000000000,   0.09600,
,,,35.000000000000,   0.09600,
,,,35.200000000000,   0.09600,
,,,35.400000000000,   0.09600,
,,,35.600000000000,   0.09600,
,,,35.800000000000,   0.09600,
,,,36.000000000000,   0.09600,
,,,36.200000000000,   0.10400,
,,,36.400000000000,   0.09600,
,,,36.600000000000,   0.08800,
,,,36.800000000000,   0.09600,
,,,37.000000000000,   0.09600,
,,,37.200000000000,   0.09600,
,,,37.400000000000,   0.10400,
,,,37.600000000000,   0.09600,
,,,37.800000000000,   0.09600,
,,,38.000000000000,   0.10400,
,,,38.200000000000,   0.10400,
,,,38.400000000000,   0.09600,
,,,38.600000000000,   0.09600,
,,,38.800000000000,   0.10400,
,,,39.000000000000,   0.09600,
,,,39.200000000000,   0.09600,
,,,39.400000000000,   0.09600,
,,,39.600000000000,   0.11200,
,,,39.800000000000,   0.10400,
,,,40.000000000000,   0.08800,
,,,40.200000000000,   0.11200,
,,,40.400000000000,   0.09600,
,,,40.600000000000,   0.09600,
,,,40.800000000000,   0.08800,
,,,41.000000000000,   0.08800,
,,,41.200000000000,   0.09600,
,,,41.400000000000,   0.08800,
,,,41.600000000000,   0.09600,
,,,41.800000000000,   0.09600,
,,,42.000000000000,   0.09600,
,,,42.200000000000,   0.09600,
,,,42.400000000000,   0.10400,
,,,42.600000000000,   0.10400,
,,,42.800000000000,   0.09600,
,,,43.000000000000,   0.08800,
,,,43.200000000000,   0.09600,
,,,43.400000000000,   0.10400,
,,,43.600000000000,   0.08800,
,,,43.800000000000,   0.09600,
,,,44.000000000000,   0.08800,
,,,44.200000000000,   0.09600,
,,,44.400000000000,   0.08800,
,,,44.600000000000,   0.09600,
,,,44.800000000000,   0.09600,
,,,45.000000000000,   0.09600,
,,,45.200000000000,   0.09600,
,,,45.400000000000,   0.08800,
,,,45.600000000000,   0.09600,
,,,45.800000000000,   0.09600,
,,,46.000000000000,   0.09600,
,,,46.200000000000,   0.08800,
,,,46.400000000000,   0.09600,
,,,46.600000000000,   0.09600,
,,,46.800000000000,   0.09600,
,,,47.000000000000,   0.08800,
,,,47.200000000000,   0.09600,
,,,47.400000000000,   0.12800,
,,,47.600000000000,   0.27200,
,,,47.800000000000,   0.50400,
,,,48.000000000000,   0.80000,
,,,48.200000000000,   1.09600,
,,,48.400000000000,   1.26400,
,,,48.600000000000,   1.28800,
,,,48.800000000000,   1.17600,
,,,49.000000000000,   1.03200,
,,,49.200000000000,   0.86400,
,,,49.400000000000,   0.68000,
,,,49.600000000000,   0.54400,
,,,49.800000000000,   0.43200,
,,,50.000000000000,   0.34400,
,,,50.200000000000,   0.28800,
,,,50.400000000000,   0.21600,
,,,50.600000000000,   0.19200,
,,,50.800000000000,   0.16000,
,,,51.000000000000,   0.14400,
,,,51.200000000000,   0.13600,
,,,51.400000000000,   0.13600,
,,,51.600000000000,   0.12800,
,,,51.800000000000,   0.11200,
,,,52.000000000000,   0.11200,
,,,52.200000000000,   0.11200,
,,,52.400000000000,   0.10400,
,,,52.600000000000,   0.10400,
,,,52.800000000000,   0.11200,
,,,53.000000000000,   0.11200,
,,,53.200000000000,   0.12000,
,,,53.400000000000,   0.10400,
,,,53.600000000000,   0.12000,
,,,53.800000000000,   0.10400,
,,,54.000000000000,   0.10400,
,,,54.200000000000,   0.10400,
,,,54.400000000000,   0.10400,
,,,54.600000000000,   0.09600,
,,,54.800000000000,   0.12000,
,,,55.000000000000,   0.10400,
,,,55.200000000000,   0.10400,
,,,55.400000000000,   0.08800,
,,,55.600000000000,   0.10400,
,,,55.800000000000,   0.09600,
,,,56.000000000000,   0.10400,
,,,56.200000000000,   0.10400,
,,,56.400000000000,   0.11200,
,,,56.600000000000,   0.10400,
,,,56.800000000000,   0.09600,
,,,57.000000000000,   0.09600,
,,,57.200000000000,   0.11200,
,,,57.400000000000,   0.10400,
,,,57.600000000000,   0.10400,
,,,57.800000000000,   0.10400,
,,,58.000000000000,   0.09600,
,,,58.200000000000,   0.10400,
,,,58.400000000000,   0.10400,
,,,58.600000000000,   0.10400,
,,,58.800000000000,   0.09600,
,,,59.000000000000,   0.09600,
,,,59.200000000000,   0.09600,
,,,59.400000000000,   0.09600,
,,,59.600000000000,   0.09600,
,,,59.800000000000,   0.08800,
,,,60.000000000000,   0.10400,
,,,60.200000000000,   0.08800,
,,,60.400000000000,   0.09600,
,,,60.600000000000,   0.10400,
,,,60.800000000000,   0.09600,
,,,61.000000000000,   0.11200,
,,,61.200000000000,   0.09600,
,,,61.400000000000,   0.10400,
,,,61.600000000000,   0.09600,
,,,61.800000000000,   0.09600,
,,,62.000000000000,   0.11200,
,,,62.200000000000,   0.10400,
,,,62.400000000000,   0.10400,
,,,62.600000000000,   0.09600,
,,,62.800000000000,   0.10400,
,,,63.000000000000,   0.10400,
,,,63.200000000000,   0.09600,
,,,63.400000000000,   0.09600,
,,,63.600000000000,   0.10400,
,,,63.800000000000,   0.10400,
,,,64.000000000000,   0.10400,
,,,64.200000000000,   0.10400,
,,,64.400000000000,   0.09600,
,,,64.600000000000,   0.09600,
,,,64.800000000000,   0.09600,
,,,65.000000000000,   0.11200,
,,,65.200000000000,   0.09600,
,,,65.400000000000,   0.09600,
,,,65.600000000000,   0.09600,
,,,65.800000000000,   0.11200,
,,,66.000000000000,   0.09600,
,,,66.200000000000,   0.09600,
,,,66.400000000000,   0.10400,
,,,66.600000000000,   0.09600,
,,,66.800000000000,   0.09600,
,,,67.000000000000,   0.09600,
,,,67.200000000000,   0.10400,
,,,67.400000000000,   0.10400,
,,,67.600000000000,   0.10400,
,,,67.800000000000,   0.09600,
,,,68.000000000000,   0.10400,
,,,68.200000000000,   0.11200,
,,,68.400000000000,   0.09600,
,,,68.600000000000,   0.09600,
,,,68.800000000000,   0.09600,
,,,69.000000000000,   0.10400,
,,,69.200000000000,   0.09600,
,,,69.400000000000,   0.10400,
,,,69.600000000000,   0.08800,
,,,69.800000000000,   0.08800,
,,,70.000000000000,   0.11200,
,,,70.200000000000,   0.09600,
,,,70.400000000000,   0.09600,
,,,70.600000000000,   0.11200,
,,,70.800000000000,   0.10400,
,,,71.000000000000,   0.09600,
,,,71.200000000000,   0.09600,
,,,71.400000000000,   0.10400,
,,,71.600000000000,   0.10400,
,,,71.800000000000,   0.09600,
,,,72.000000000000,   0.10400,
,,,72.200000000000,   0.11200,
,,,72.400000000000,   0.10400,
,,,72.600000000000,   0.09600,
,,,72.800000000000,   0.10400,
,,,73.000000000000,   0.09600,
,,,73.200000000000,   0.09600,
,,,73.400000000000,   0.09600,
,,,73.600000000000,   0.09600,
,,,73.800000000000,   0.10400,
,,,74.000000000000,   0.10400,
,,,74.200000000000,   0.08800,
,,,74.400000000000,   0.09600,
,,,74.600000000000,   0.09600,
,,,74.800000000000,   0.09600,
,,,75.000000000000,   0.09600,
,,,75.200000000000,   0.09600,
,,,75.400000000000,   0.09600,
,,,75.600000000000,   0.09600,
,,,75.800000000000,   0.09600,
,,,76.000000000000,   0.09600,
,,,76.200000000000,   0.09600,
,,,76.400000000000,   0.10400,
,,,76.600000000000,   0.09600,
,,,76.800000000000,   0.09600,
,,,77.000000000000,   0.09600,
,,,77.200000000000,   0.09600,
,,,77.400000000000,   0.09600,
,,,77.600000000000,   0.09600,
,,,77.800000000000,   0.10400,
,,,78.000000000000,   0.10400,
,,,78.200000000000,   0.08800,
,,,78.400000000000,   0.09600,
,,,78.600000000000,   0.10400,
,,,78.800000000000,   0.09600,
,,,79.000000000000,   0.10400,
,,,79.200000000000,   0.08800,
,,,79.400000000000,   0.09600,
,,,79.600000000000,   0.09600,
,,,79.800000000000,   0.08800,
,,,80.000000000000,   0.09600,
,,,80.200000000000,   0.08800,
,,,80.400000000000,   0.09600,
,,,80.600000000000,   0.08800,
,,,80.800000000000,   0.10400,
,,,81.000000000000,   0.09600,
,,,81.200000000000,   0.08800,
,,,81.400000000000,   0.09600,
,,,81.600000000000,   0.09600,
,,,81.800000000000,   0.09600,
,,,82.000000000000,   0.10400,
,,,82.200000000000,   0.09600,
,,,82.400000000000,   0.09600,
,,,82.600000000000,   0.08800,
,,,82.800000000000,   0.10400,
,,,83.000000000000,   0.09600,
,,,83.200000000000,   0.08800,
,,,83.400000000000,   0.09600,
,,,83.600000000000,   0.08800,
,,,83.800000000000,   0.09600,
,,,84.000000000000,   0.08800,
,,,84.200000000000,   0.09600,
,,,84.400000000000,   0.09600,
,,,84.600000000000,   0.09600,
,,,84.800000000000,   0.08800,
,,,85.000000000000,   0.09600,
,,,85.200000000000,   0.09600,
,,,85.400000000000,   0.08800,
,,,85.600000000000,   0.08800,
,,,85.800000000000,   0.08800,
,,,86.000000000000,   0.11200,
,,,86.200000000000,   0.26400,
,,,86.400000000000,   0.50400,
,,,86.600000000000,   0.76800,
,,,86.800000000000,   1.00800,
,,,87.000000000000,   1.17600,
,,,87.200000000000,   1.21600,
,,,87.400000000000,   1.16000,
,,,87.600000000000,   1.03200,
,,,87.800000000000,   0.89600,
,,,88.000000000000,   0.72800,
,,,88.200000000000,   0.58400,
,,,88.400000000000,   0.47200,
,,,88.600000000000,   0.37600,
,,,88.800000000000,   0.30400,
,,,89.000000000000,   0.24000,
,,,89.200000000000,   0.20000,
,,,89.400000000000,   0.17600,
,,,89.600000000000,   0.14400,
,,,89.800000000000,   0.14400,
,,,90.000000000000,   0.12000,
,,,90.200000000000,   0.11200,
,,,90.400000000000,   0.12000,
,,,90.600000000000,   0.11200,
,,,90.800000000000,   0.11200,
,,,91.000000000000,   0.11200,
,,,91.200000000000,   0.10400,
,,,91.400000000000,   0.10400,
,,,91.600000000000,   0.10400,
,,,91.800000000000,   0.09600,
,,,92.000000000000,   0.09600,
,,,92.200000000000,   0.10400,
,,,92.400000000000,   0.09600,
,,,92.600000000000,   0.09600,
,,,92.800000000000,   0.09600,
,,,93.000000000000,   0.09600,
,,,93.200000000000,   0.09600,
,,,93.400000000000,   0.10400,
,,,93.600000000000,   0.09600,
,,,93.800000000000,   0.09600,
,,,94.000000000000,   0.10400,
,,,94.200000000000,   0.09600,
,,,94.400000000000,   0.09600,
,,,94.600000000000,   0.08800,
,,,94.800000000000,   0.08800,
,,,95.000000000000,   0.09600,
,,,95.200000000000,   0.10400,
,,,95.400000000000,   0.10400,
,,,95.600000000000,   0.09600,
,,,95.800000000000,   0.10400,
,,,96.000000000000,   0.09600,
,,,96.200000000000,   0.08800,
,,,96.400000000000,   0.09600,
,,,96.600000000000,   0.09600,
,,,96.800000000000,   0.09600,
,,,97.000000000000,   0.09600,
,,,97.200000000000,   0.10400,
,,,97.400000000000,   0.10400,
,,,97.600000000000,   0.09600,
,,,97.800000000000,   0.09600,
,,,98.000000000000,   0.09600,
,,,98.200000000000,   0.08800,
,,,98.400000000000,   0.09600,
,,,98.600000000000,   0.08800,
,,,98.800000000000,   0.08800,
,,,99.000000000000,   0.09600,
,,,99.200000000000,   0.08800,
,,,99.400000000000,   0.09600,
,,,99.600000000000,   0.08800,
,,,99.800000000000,   0.09600,
,,,100.000000000000,   0.09600,
,,,100.200000000000,   0.09600,
,,,100.400000000000,   0.08800,
,,,100.600000000000,   0.10400,
,,,100.800000000000,   0.09600,
,,,101.000000000000,   0.09600,
,,,101.200000000000,   0.09600,
,,,101.400000000000,   0.08800,
,,,101.600000000000,   0.09600,
,,,101.800000000000,   0.09600,
,,,102.000000000000,   0.08800,
,,,102.200000000000,   0.09600,
,,,102.400000000000,   0.09600,
,,,102.600000000000,   0.09600,
,,,102.800000000000,   0.09600,
,,,103.000000000000,   0.09600,
,,,103.200000000000,   0.09600,
,,,103.400000000000,   0.08800,
,,,103.600000000000,   0.10400,
,,,103.800000000000,   0.09600,
,,,104.000000000000,   0.08800,
,,,104.200000000000,   0.09600,
,,,104.400000000000,   0.08800,
,,,104.600000000000,   0.08800,
,,,104.800000000000,   0.08800,
,,,105.000000000000,   0.09600,
,,,105.200000000000,   0.08800,
,,,105.400000000000,   0.09600,
,,,105.600000000000,   0.09600,
,,,105.800000000000,   0.09600,
,,,106.000000000000,   0.09600,
,,,106.200000000000,   0.09600,
,,,106.400000000000,   0.09600,
,,,106.600000000000,   0.09600,
,,,106.800000000000,   0.08800,
,,,107.000000000000,   0.08800,
,,,107.200000000000,   0.09600,
,,,107.400000000000,   0.08800,
,,,107.600000000000,   0.08800,
,,,107.800000000000,   0.08000,
,,,108.000000000000,   0.09600,
,,,108.200000000000,   0.09600,
,,,108.400000000000,   0.08800,
,,,108.600000000000,   0.08800,
,,,108.800000000000,   0.08800,
,,,109.000000000000,   0.08000,
,,,109.200000000000,   0.09600,
,,,109.400000000000,   0.08800,
,,,109.600000000000,   0.09600,
,,,109.800000000000,   0.09600,
,,,110.000000000000,   0.09600,
,,,110.200000000000,   0.08800,
,,,110.400000000000,   0.08800,
,,,110.600000000000,   0.08800,
,,,110.800000000000,   0.08800,
,,,111.000000000000,   0.09600,
,,,111.200000000000,   0.08800,
,,,111.400000000000,   0.08800,
,,,111.600000000000,   0.08800,
,,,111.800000000000,   0.09600,
,,,112.000000000000,   0.09600,
,,,112.200000000000,   0.08800,
,,,112.400000000000,   0.09600,
,,,112.600000000000,   0.09600,
,,,112.800000000000,   0.09600,
,,,113.000000000000,   0.08800,
,,,113.200000000000,   0.08800,
,,,113.400000000000,   0.08800,
,,,113.600000000000,   0.09600,
,,,113.800000000000,   0.08800,
,,,114.000000000000,   0.08800,
,,,114.200000000000,   0.09600,
,,,114.400000000000,   0.08800,
,,,114.600000000000,   0.09600,
,,,114.800000000000,   0.09600,
,,,115.000000000000,   0.09600,
,,,115.200000000000,   0.08800,
,,,115.400000000000,   0.08800,
,,,115.600000000000,   0.09600,
,,,115.800000000000,   0.08800,
,,,116.000000000000,   0.09600,
,,,116.200000000000,   0.09600,
,,,116.400000000000,   0.08800,
,,,116.600000000000,   0.08800,
,,,116.800000000000,   0.12800,
,,,117.000000000000,   0.28800,
,,,117.200000000000,   0.56000,
,,,117.400000000000,   0.84800,
,,,117.600000000000,   1.06400,
,,,117.800000000000,   1.22400,
,,,118.000000000000,   1.24800,
,,,118.200000000000,   1.18400,
,,,118.400000000000,   1.05600,
,,,118.600000000000,   0.90400,
,,,118.800000000000,   0.75200,
,,,119.000000000000,   0.60000,
,,,119.200000000000,   0.48800,
,,,119.400000000000,   0.39200,
,,,119.600000000000,   0.30400,
,,,119.800000000000,   0.24800,
,,,120.000000000000,   0.20800,
,,,120.200000000000,   0.17600,
,,,120.400000000000,   0.15200,
,,,120.600000000000,   0.14400,
,,,120.800000000000,   0.12800,
,,,121.000000000000,   0.12000,
,,,121.200000000000,   0.12000,
,,,121.400000000000,   0.10400,
,,,121.600000000000,   0.10400,
,,,121.800000000000,   0.10400,
,,,122.000000000000,   0.10400,
,,,122.200000000000,   0.09600,
,,,122.400000000000,   0.09600,
,,,122.600000000000,   0.09600,
,,,122.800000000000,   0.09600,
,,,123.000000000000,   0.09600,
,,,123.200000000000,   0.09600,
,,,123.400000000000,   0.08800,
,,,123.600000000000,   0.08800,
,,,123.800000000000,   0.08800,
,,,124.000000000000,   0.08800,
,,,124.200000000000,   0.08800,
,,,124.400000000000,   0.08800,
,,,124.600000000000,   0.08800,
,,,124.800000000000,   0.08800,
,,,125.000000000000,   0.09600,
,,,125.200000000000,   0.09600,
,,,125.400000000000,   0.09600,
,,,125.600000000000,   0.08800,
,,,125.800000000000,   0.09600,
